Product Name,Description,Image,price
ECA161-01 B&R Automation,MULTI digital output module 16 relay outputs 220 VAC / 24 VDCUsed Guaranteed,https://www.plc-city.com/shop/178126-home_default/eca161-01-used.jpg,127.53 USD                                                                                                                                
ECCP60-01 B&R Automation,Multicontrol PLC processor CP60Used Guaranteed,https://www.plc-city.com/shop/178078-home_default/eccp60-01-used.jpg,229.62 USD                                                                                                                                
ECEE32-0 B&R Automation,EEPROM MEMORY MODULEUsed Guaranteed,https://www.plc-city.com/shop/178116-home_default/ecee32-0-used.jpg,
ECEP128-0 B&R Automation,memory module EP128Used Guaranteed,https://www.plc-city.com/shop/178077-home_default/ecep128-0-used.jpg,191.15 USD                                                                                                                                
ECI164-0 B&R Automation,Digital input moduleUsed Guaranteed,https://www.plc-city.com/shop/178128-home_default/eci164-0-used.jpg,174.80 USD                                                                                                                                
ECNT40-0 B&R Automation,MULTI power supply module 24 VDCUsed Guaranteed,https://www.plc-city.com/shop/178117-home_default/ecnt40-0-used.jpg,184.07 USD                                                                                                                                
ECPA81-0 B&R Automation,MULTI analog output module 8 outputsUsed Guaranteed,https://www.plc-city.com/shop/178118-home_default/ecpa81-0-used.jpg,270.65 USD                                                                                                                                
ECPE82-1 B&R Automation,MULTI analog input module 8 inputsUsed Guaranteed,https://www.plc-city.com/shop/178119-home_default/ecpe82-1-used.jpg,282.31 USD                                                                                                                                
ECPIF3-0 B&R Automation,MULTI interface module 2 RS232/TTY interfaces TTYUsed Guaranteed,https://www.plc-city.com/shop/178120-home_default/ecpif3-0-used.jpg,228.56 USD                                                                                                                                
ECPP40-01 B&R Automation,MULTI parallel processor Used Guaranteed,https://www.plc-city.com/shop/178124-home_default/ecpp40-01-used.jpg,137.64 USD                                                                                                                                
ECPP40MEM-01 B&R Automation,"MULTI PPU MEMORY BOARD 6 303CPU, 64k RAMUsed Guaranteed",https://www.plc-city.com/shop/178121-home_default/ecpp40mem-01-used.jpg,652.18 USD                                                                                                                                
ECPS45-0 B&R Automation,"MULTI power supply module 120 VAC, 100 W With extended diagnostics functionsUsed Guaranteed",https://www.plc-city.com/shop/178125-home_default/ecps45-0-used.jpg,237.19 USD                                                                                                                                
HCMAESTRO-0 B&R Automation,"MAESTRO INDUSTRIAL COMPU TER,0S-9/68000, 12 MHzUsed Guaranteed",https://www.plc-city.com/shop/178123-home_default/hcmaestro-0-used.jpg,806.55 USD                                                                                                                                
MDA163-0 B&R Automation,"Output Module, 16 OuputsUsed Guaranteed",https://www.plc-city.com/shop/178115-home_default/mda163-0-used.jpg,206.17 USD                                                                                                                                
MDE163-2 B&R Automation,INPUT MODULEUsed Guaranteed,https://www.plc-city.com/shop/178127-home_default/mde163-2-used.jpg,54.52 USD                                                                                                                                
