Product Name,Description,Image,price
AFC12342-F Panasonic,Matsushita NAIS Micro Controller BoardUFP - Used Factory Packaging,https://www.plc-city.com/shop/178030-home_default/nai-afc12342-f-ufp.jpg,
MSD023A1XXV Panasonic,AC Servo Driver,https://www.plc-city.com/shop/178026-home_default/msd023a1xxv-nwb.jpg,
